…
Este es un posteo

library(polAr)
show_available_elections()

## Warning: The `x` argument of `as_tibble.matrix()` must have unique column names if `.name_repair` is omitted as of tibble 2.0.0.
## Using compatibility `.name_repair`.
## This warning is displayed once every 8 hours.
## Call `lifecycle::last_warnings()` to see where this warning was generated.

## # A tibble: 425 x 5
##    district category round  year  NOMBRE   
##    <chr>    <chr>    <chr>  <chr> <chr>    
##  1 arg      presi    balota 2015  ARGENTINA
##  2 arg      presi    gral   2003  ARGENTINA
##  3 arg      presi    gral   2007  ARGENTINA
##  4 arg      presi    gral   2011  ARGENTINA
##  5 arg      presi    gral   2015  ARGENTINA
##  6 arg      presi    gral   2019  ARGENTINA
##  7 arg      presi    paso   2011  ARGENTINA
##  8 arg      presi    paso   2015  ARGENTINA
##  9 arg      presi    paso   2019  ARGENTINA
## 10 caba     dip      gral   2005  CABA     
## # … with 415 more rows
